…
# unnest()
penguins_nested |> 
  unnest(pred) |> 
  select(!c(data, lm_obj))
```

    # A tibble: 333 × 2
    # Groups:   species [3]
       species  pred
       <fct>   <dbl>
     1 Adelie   39.0
     2 Adelie   39.1
     3 Adelie   37.4
     4 Adelie   38.0
     5 Adelie   38.6
     6 Adelie   38.6
     7 Adelie   41.9
     8 Adelie   37.2
     9 Adelie   39.1
    10 Adelie   41.0
    # ℹ 323 more rows
…
## Funcionales predicate y demás

Los predicados son funciones que devuelven un solo TRUE o FALSE (e.g.,
`is.character()`). Así, un predicado funcional aplica un predicado a
cada elemento de un vector: `keep()`, `discard()`, `some()`, `every()`,
`detect()`, `detect_index()`… Para más información ver:
<https://r4ds.had.co.nz/iteration.html>, 21.9.1 Predicate functions.

``` r
penguins |> 
  keep(is.numeric)
```

    # A tibble: 333 × 5
       bill_length_mm bill_depth_mm flipper_length_mm body_mass_g  year
                <dbl>         <dbl>             <int>       <int> <int>
     1           39.1          18.7               181        3750  2007
     2           39.5          17.4               186        3800  2007
     3           40.3          18                 195        3250  2007
     4           36.7          19.3               193        3450  2007
     5           39.3          20.6               190        3650  2007
     6           38.9          17.8               181        3625  2007
     7           39.2          19.6               195        4675  2007
     8           41.1          17.6               182        3200  2007
     9           38.6          21.2               191        3800  2007
    10           34.6          21.1               198        4400  2007
    # ℹ 323 more rows

``` r
penguins |> 
  discard(is.numeric)
```

    # A tibble: 333 × 3
       species island    sex   
       <fct>   <fct>     <fct> 
     1 Adelie  Torgersen male  
     2 Adelie  Torgersen female
     3 Adelie  Torgersen female
     4 Adelie  Torgersen female
     5 Adelie  Torgersen male  
     6 Adelie  Torgersen female
     7 Adelie  Torgersen male  
     8 Adelie  Torgersen female
     9 Adelie  Torgersen male  
    10 Adelie  Torgersen male  
    # ℹ 323 more rows
…
