…
    # A tibble: 3 × 3
      island        n mean_flipper_length
      <fct>     <int>               <dbl>
    1 Biscoe      168                210.
    2 Dream       124                193.
    3 Torgersen    52                191.

``` r
# 2
penguins |> 
  mutate(mass_by_length = (body_mass_g / 1000) / flipper_length_mm) |> 
  select(mass_by_length)
```

    # A tibble: 344 × 1
       mass_by_length
                <dbl>
     1         0.0207
     2         0.0204
     3         0.0167
     4        NA     
     5         0.0179
     6         0.0192
     7         0.0200
     8         0.0240
     9         0.0180
    10         0.0224
    # ℹ 334 more rows
…
``` r
# Tidyverse
standardise_tidy <- function(x, my.na.rm) {
  ({{ x }} - mean({{ x }}, na.rm = my.na.rm)) / sd({{ x }}, na.rm = my.na.rm)
} 

penguins |> 
  mutate(st_bill_length = standardise_tidy(x = bill_length_mm, my.na.rm = T)) |> 
  select(bill_length_mm, st_bill_length)
```

    # A tibble: 344 × 2
       bill_length_mm st_bill_length
                <dbl>          <dbl>
     1           39.1         -0.883
     2           39.5         -0.810
     3           40.3         -0.663
     4           NA           NA    
     5           36.7         -1.32 
     6           39.3         -0.847
     7           38.9         -0.920
     8           39.2         -0.865
     9           34.1         -1.80 
    10           42           -0.352
    # ℹ 334 more rows
…
