…
    [1] 2

``` r
myvector |> unique() |> length()
```

    [1] 2

``` r
penguins <- palmerpenguins::penguins
penguins
```

    # A tibble: 344 × 8
       species island    bill_length_mm bill_depth_mm flipper_length_mm body_mass_g
       <fct>   <fct>              <dbl>         <dbl>             <int>       <int>
     1 Adelie  Torgersen           39.1          18.7               181        3750
     2 Adelie  Torgersen           39.5          17.4               186        3800
     3 Adelie  Torgersen           40.3          18                 195        3250
     4 Adelie  Torgersen           NA            NA                  NA          NA
     5 Adelie  Torgersen           36.7          19.3               193        3450
     6 Adelie  Torgersen           39.3          20.6               190        3650
     7 Adelie  Torgersen           38.9          17.8               181        3625
     8 Adelie  Torgersen           39.2          19.6               195        4675
     9 Adelie  Torgersen           34.1          18.1               193        3475
    10 Adelie  Torgersen           42            20.2               190        4250
    # ℹ 334 more rows
    # ℹ 2 more variables: sex <fct>, year <int>
…
``` r
View(penguins)

# filter
penguins |> 
  filter(island == "Dream") 
```

    # A tibble: 124 × 8
       species island bill_length_mm bill_depth_mm flipper_length_mm body_mass_g
       <fct>   <fct>           <dbl>         <dbl>             <int>       <int>
     1 Adelie  Dream            39.5          16.7               178        3250
     2 Adelie  Dream            37.2          18.1               178        3900
     3 Adelie  Dream            39.5          17.8               188        3300
     4 Adelie  Dream            40.9          18.9               184        3900
     5 Adelie  Dream            36.4          17                 195        3325
     6 Adelie  Dream            39.2          21.1               196        4150
     7 Adelie  Dream            38.8          20                 190        3950
     8 Adelie  Dream            42.2          18.5               180        3550
     9 Adelie  Dream            37.6          19.3               181        3300
    10 Adelie  Dream            39.8          19.1               184        4650
    # ℹ 114 more rows
    # ℹ 2 more variables: sex <fct>, year <int>
…
    # A tibble: 4 × 8
      species   island bill_length_mm bill_depth_mm flipper_length_mm body_mass_g
      <fct>     <fct>           <dbl>         <dbl>             <int>       <int>
    1 Adelie    Dream            39.8          19.1               184        4650
    2 Adelie    Dream            39.6          18.8               190        4600
    3 Chinstrap Dream            52.8          20                 205        4550
    4 Chinstrap Dream            52            20.7               210        4800
    # ℹ 2 more variables: sex <fct>, year <int>

``` r
penguins |> 
  filter(island %in% c("Dream", "Torgersen"))
```

    # A tibble: 176 × 8
       species island    bill_length_mm bill_depth_mm flipper_length_mm body_mass_g
       <fct>   <fct>              <dbl>         <dbl>             <int>       <int>
     1 Adelie  Torgersen           39.1          18.7               181        3750
     2 Adelie  Torgersen           39.5          17.4               186        3800
     3 Adelie  Torgersen           40.3          18                 195        3250
     4 Adelie  Torgersen           NA            NA                  NA          NA
     5 Adelie  Torgersen           36.7          19.3               193        3450
     6 Adelie  Torgersen           39.3          20.6               190        3650
     7 Adelie  Torgersen           38.9          17.8               181        3625
     8 Adelie  Torgersen           39.2          19.6               195        4675
     9 Adelie  Torgersen           34.1          18.1               193        3475
    10 Adelie  Torgersen           42            20.2               190        4250
    # ℹ 166 more rows
    # ℹ 2 more variables: sex <fct>, year <int>

``` r
# select
penguins |> 
  select(sex, body_mass_g)
```

    # A tibble: 344 × 2
       sex    body_mass_g
       <fct>        <int>
     1 male          3750
     2 female        3800
     3 female        3250
     4 <NA>            NA
     5 female        3450
     6 male          3650
     7 female        3625
     8 male          4675
     9 <NA>          3475
    10 <NA>          4250
    # ℹ 334 more rows

``` r
penguins |> 
  select(ends_with(c("mm", "g"))) # select variables with a text pattern
```

    # A tibble: 344 × 4
       bill_length_mm bill_depth_mm flipper_length_mm body_mass_g
                <dbl>         <dbl>             <int>       <int>
     1           39.1          18.7               181        3750
     2           39.5          17.4               186        3800
     3           40.3          18                 195        3250
     4           NA            NA                  NA          NA
     5           36.7          19.3               193        3450
     6           39.3          20.6               190        3650
     7           38.9          17.8               181        3625
     8           39.2          19.6               195        4675
     9           34.1          18.1               193        3475
    10           42            20.2               190        4250
    # ℹ 334 more rows

``` r
penguins |> 
  select(sex, body_mass_g, everything()) # use select to reorder variables
```

    # A tibble: 344 × 8
       sex    body_mass_g species island    bill_length_mm bill_depth_mm
       <fct>        <int> <fct>   <fct>              <dbl>         <dbl>
     1 male          3750 Adelie  Torgersen           39.1          18.7
     2 female        3800 Adelie  Torgersen           39.5          17.4
     3 female        3250 Adelie  Torgersen           40.3          18  
     4 <NA>            NA Adelie  Torgersen           NA            NA  
     5 female        3450 Adelie  Torgersen           36.7          19.3
     6 male          3650 Adelie  Torgersen           39.3          20.6
     7 female        3625 Adelie  Torgersen           38.9          17.8
     8 male          4675 Adelie  Torgersen           39.2          19.6
     9 <NA>          3475 Adelie  Torgersen           34.1          18.1
    10 <NA>          4250 Adelie  Torgersen           42            20.2
    # ℹ 334 more rows
    # ℹ 2 more variables: flipper_length_mm <int>, year <int>

``` r
# arrange
penguins |> 
  select(sex, body_mass_g) |> 
  arrange(body_mass_g)
```

    # A tibble: 344 × 2
       sex    body_mass_g
       <fct>        <int>
     1 female        2700
     2 female        2850
     3 female        2850
     4 female        2900
     5 female        2900
     6 female        2900
     7 female        2900
     8 female        2925
     9 <NA>          2975
    10 female        3000
    # ℹ 334 more rows

``` r
penguins |> 
  select(sex, body_mass_g) |> 
  arrange(desc(body_mass_g))
```

    # A tibble: 344 × 2
       sex   body_mass_g
       <fct>       <int>
     1 male         6300
     2 male         6050
     3 male         6000
     4 male         6000
     5 male         5950
     6 male         5950
     7 male         5850
     8 male         5850
     9 male         5850
    10 male         5800
    # ℹ 334 more rows
…
2.  Create an object from the previous one where you select the island
    and the variables related to the bill.

3.  Create an object from the one created in step 1 where you select
    everything except the species.

``` r
# mutate
penguins |> 
  mutate(bill_volume_mm2 = (bill_length_mm * bill_depth_mm) / 2) |> 
  select(bill_volume_mm2, everything())
```

    # A tibble: 344 × 9
       bill_volume_mm2 species island bill_length_mm bill_depth_mm flipper_length_mm
                 <dbl> <fct>   <fct>           <dbl>         <dbl>             <int>
     1            366. Adelie  Torge…           39.1          18.7               181
     2            344. Adelie  Torge…           39.5          17.4               186
     3            363. Adelie  Torge…           40.3          18                 195
     4             NA  Adelie  Torge…           NA            NA                  NA
     5            354. Adelie  Torge…           36.7          19.3               193
     6            405. Adelie  Torge…           39.3          20.6               190
     7            346. Adelie  Torge…           38.9          17.8               181
     8            384. Adelie  Torge…           39.2          19.6               195
     9            309. Adelie  Torge…           34.1          18.1               193
    10            424. Adelie  Torge…           42            20.2               190
    # ℹ 334 more rows
    # ℹ 3 more variables: body_mass_g <int>, sex <fct>, year <int>

``` r
penguins |>
  mutate(female_penguin = case_when(
    sex == "female" & body_mass_g < 3600 ~ "small female",
    sex == "female" & body_mass_g >= 3600 ~ "big female",
    TRUE ~ NA)) |>
  select(female_penguin, sex, body_mass_g)
```

    # A tibble: 344 × 3
       female_penguin sex    body_mass_g
       <chr>          <fct>        <int>
     1 <NA>           male          3750
     2 big female     female        3800
     3 small female   female        3250
     4 <NA>           <NA>            NA
     5 small female   female        3450
     6 <NA>           male          3650
     7 big female     female        3625
     8 <NA>           male          4675
     9 <NA>           <NA>          3475
    10 <NA>           <NA>          4250
    # ℹ 334 more rows
…
``` r
# join: left, right, full, inner

coordinates <- tibble(island = c("Dream", "Torgersen", "Biscoe"), 
  latitude = c("64°44′S", "64°46′S", "64°36′S"),
  longitude = c("64°14′W", "64°05′W", " 63°30′W"))

penguins |> 
  left_join(coordinates, by = "island") |> 
  select(island, latitude, longitude, everything())
```

    # A tibble: 344 × 10
       island    latitude longitude species bill_length_mm bill_depth_mm
       <chr>     <chr>    <chr>     <fct>            <dbl>         <dbl>
     1 Torgersen 64°46′S  64°05′W   Adelie            39.1          18.7
     2 Torgersen 64°46′S  64°05′W   Adelie            39.5          17.4
     3 Torgersen 64°46′S  64°05′W   Adelie            40.3          18  
     4 Torgersen 64°46′S  64°05′W   Adelie            NA            NA  
     5 Torgersen 64°46′S  64°05′W   Adelie            36.7          19.3
     6 Torgersen 64°46′S  64°05′W   Adelie            39.3          20.6
     7 Torgersen 64°46′S  64°05′W   Adelie            38.9          17.8
     8 Torgersen 64°46′S  64°05′W   Adelie            39.2          19.6
     9 Torgersen 64°46′S  64°05′W   Adelie            34.1          18.1
    10 Torgersen 64°46′S  64°05′W   Adelie            42            20.2
    # ℹ 334 more rows
    # ℹ 4 more variables: flipper_length_mm <int>, body_mass_g <int>, sex <fct>,
    #   year <int>
…
![If a name isn’t defined inside a function, R will look one level up.
Art by Cristina Grajera](images/environment.png)

In general, with base R, we can only call objects that are part of the
environment (env-variables); however, with *tidyverse*, we can also call
variables within tables (data-variables). This feature called *data
masking* simplifies the code in *tidyverse*, but the advantage does not
come for free and has implications for the grammar of the functions as
we will see later.

``` r
penguins |> filter(island == "Dream", species == "Chinstrap") 
```

    # A tibble: 68 × 8
       species   island bill_length_mm bill_depth_mm flipper_length_mm body_mass_g
       <fct>     <fct>           <dbl>         <dbl>             <int>       <int>
     1 Chinstrap Dream            46.5          17.9               192        3500
     2 Chinstrap Dream            50            19.5               196        3900
     3 Chinstrap Dream            51.3          19.2               193        3650
     4 Chinstrap Dream            45.4          18.7               188        3525
     5 Chinstrap Dream            52.7          19.8               197        3725
     6 Chinstrap Dream            45.2          17.8               198        3950
     7 Chinstrap Dream            46.1          18.2               178        3250
     8 Chinstrap Dream            51.3          18.2               197        3750
     9 Chinstrap Dream            46            18.9               195        4150
    10 Chinstrap Dream            51.3          19.9               198        3700
    # ℹ 58 more rows
    # ℹ 2 more variables: sex <fct>, year <int>

``` r
penguins[penguins$island == "Dream" & penguins$species == "Chinstrap", ]
```

    # A tibble: 68 × 8
       species   island bill_length_mm bill_depth_mm flipper_length_mm body_mass_g
       <fct>     <fct>           <dbl>         <dbl>             <int>       <int>
     1 Chinstrap Dream            46.5          17.9               192        3500
     2 Chinstrap Dream            50            19.5               196        3900
     3 Chinstrap Dream            51.3          19.2               193        3650
     4 Chinstrap Dream            45.4          18.7               188        3525
     5 Chinstrap Dream            52.7          19.8               197        3725
     6 Chinstrap Dream            45.2          17.8               198        3950
     7 Chinstrap Dream            46.1          18.2               178        3250
     8 Chinstrap Dream            51.3          18.2               197        3750
     9 Chinstrap Dream            46            18.9               195        4150
    10 Chinstrap Dream            51.3          19.9               198        3700
    # ℹ 58 more rows
    # ℹ 2 more variables: sex <fct>, year <int>
…
