…
    [1] 5

``` r
# install.packages("palmerpenguins")
library(palmerpenguins)

penguins <- palmerpenguins::penguins
penguins
```

    # A tibble: 344 × 8
       species island    bill_length_mm bill_depth_mm flipper_length_mm body_mass_g
       <fct>   <fct>              <dbl>         <dbl>             <int>       <int>
     1 Adelie  Torgersen           39.1          18.7               181        3750
     2 Adelie  Torgersen           39.5          17.4               186        3800
     3 Adelie  Torgersen           40.3          18                 195        3250
     4 Adelie  Torgersen           NA            NA                  NA          NA
     5 Adelie  Torgersen           36.7          19.3               193        3450
     6 Adelie  Torgersen           39.3          20.6               190        3650
     7 Adelie  Torgersen           38.9          17.8               181        3625
     8 Adelie  Torgersen           39.2          19.6               195        4675
     9 Adelie  Torgersen           34.1          18.1               193        3475
    10 Adelie  Torgersen           42            20.2               190        4250
    # ℹ 334 more rows
    # ℹ 2 more variables: sex <fct>, year <int>
…
``` r
View(penguins)

# filter
penguins |> 
  filter(island == "Dream") 
```

    # A tibble: 124 × 8
       species island bill_length_mm bill_depth_mm flipper_length_mm body_mass_g
       <fct>   <fct>           <dbl>         <dbl>             <int>       <int>
     1 Adelie  Dream            39.5          16.7               178        3250
     2 Adelie  Dream            37.2          18.1               178        3900
     3 Adelie  Dream            39.5          17.8               188        3300
     4 Adelie  Dream            40.9          18.9               184        3900
     5 Adelie  Dream            36.4          17                 195        3325
     6 Adelie  Dream            39.2          21.1               196        4150
     7 Adelie  Dream            38.8          20                 190        3950
     8 Adelie  Dream            42.2          18.5               180        3550
     9 Adelie  Dream            37.6          19.3               181        3300
    10 Adelie  Dream            39.8          19.1               184        4650
    # ℹ 114 more rows
    # ℹ 2 more variables: sex <fct>, year <int>
…
    # A tibble: 4 × 8
      species   island bill_length_mm bill_depth_mm flipper_length_mm body_mass_g
      <fct>     <fct>           <dbl>         <dbl>             <int>       <int>
    1 Adelie    Dream            39.8          19.1               184        4650
    2 Adelie    Dream            39.6          18.8               190        4600
    3 Chinstrap Dream            52.8          20                 205        4550
    4 Chinstrap Dream            52            20.7               210        4800
    # ℹ 2 more variables: sex <fct>, year <int>

``` r
penguins |> 
  filter(island == "Dream" | body_mass_g > 4500) 
```

    # A tibble: 235 × 8
       species island    bill_length_mm bill_depth_mm flipper_length_mm body_mass_g
       <fct>   <fct>              <dbl>         <dbl>             <int>       <int>
     1 Adelie  Torgersen           39.2          19.6               195        4675
     2 Adelie  Dream               39.5          16.7               178        3250
     3 Adelie  Dream               37.2          18.1               178        3900
     4 Adelie  Dream               39.5          17.8               188        3300
     5 Adelie  Dream               40.9          18.9               184        3900
     6 Adelie  Dream               36.4          17                 195        3325
     7 Adelie  Dream               39.2          21.1               196        4150
     8 Adelie  Dream               38.8          20                 190        3950
     9 Adelie  Dream               42.2          18.5               180        3550
    10 Adelie  Dream               37.6          19.3               181        3300
    # ℹ 225 more rows
    # ℹ 2 more variables: sex <fct>, year <int>

``` r
penguins |> 
  filter(island %in% c("Dream", "Torgersen"))
```

    # A tibble: 176 × 8
       species island    bill_length_mm bill_depth_mm flipper_length_mm body_mass_g
       <fct>   <fct>              <dbl>         <dbl>             <int>       <int>
     1 Adelie  Torgersen           39.1          18.7               181        3750
     2 Adelie  Torgersen           39.5          17.4               186        3800
     3 Adelie  Torgersen           40.3          18                 195        3250
     4 Adelie  Torgersen           NA            NA                  NA          NA
     5 Adelie  Torgersen           36.7          19.3               193        3450
     6 Adelie  Torgersen           39.3          20.6               190        3650
     7 Adelie  Torgersen           38.9          17.8               181        3625
     8 Adelie  Torgersen           39.2          19.6               195        4675
     9 Adelie  Torgersen           34.1          18.1               193        3475
    10 Adelie  Torgersen           42            20.2               190        4250
    # ℹ 166 more rows
    # ℹ 2 more variables: sex <fct>, year <int>

``` r
# select
penguins |> 
  select(sex, body_mass_g)
```

    # A tibble: 344 × 2
       sex    body_mass_g
       <fct>        <int>
     1 male          3750
     2 female        3800
     3 female        3250
     4 <NA>            NA
     5 female        3450
     6 male          3650
     7 female        3625
     8 male          4675
     9 <NA>          3475
    10 <NA>          4250
    # ℹ 334 more rows

``` r
penguins |> 
  select(ends_with("mm")) # seleccionar variables que tienen un patron
```

    # A tibble: 344 × 3
       bill_length_mm bill_depth_mm flipper_length_mm
                <dbl>         <dbl>             <int>
     1           39.1          18.7               181
     2           39.5          17.4               186
     3           40.3          18                 195
     4           NA            NA                  NA
     5           36.7          19.3               193
     6           39.3          20.6               190
     7           38.9          17.8               181
     8           39.2          19.6               195
     9           34.1          18.1               193
    10           42            20.2               190
    # ℹ 334 more rows

``` r
penguins |> 
  select(ends_with(c("mm", "g"))) 
```

    # A tibble: 344 × 4
       bill_length_mm bill_depth_mm flipper_length_mm body_mass_g
                <dbl>         <dbl>             <int>       <int>
     1           39.1          18.7               181        3750
     2           39.5          17.4               186        3800
     3           40.3          18                 195        3250
     4           NA            NA                  NA          NA
     5           36.7          19.3               193        3450
     6           39.3          20.6               190        3650
     7           38.9          17.8               181        3625
     8           39.2          19.6               195        4675
     9           34.1          18.1               193        3475
    10           42            20.2               190        4250
    # ℹ 334 more rows

``` r
# se pueden utilizar todo tipo de patrones de texto: https://rstudio.github.io/cheatsheets/strings.pdf

penguins |> 
  select(sex, body_mass_g, everything()) # se puede usar para reordenar variables
```

    # A tibble: 344 × 8
       sex    body_mass_g species island    bill_length_mm bill_depth_mm
       <fct>        <int> <fct>   <fct>              <dbl>         <dbl>
     1 male          3750 Adelie  Torgersen           39.1          18.7
     2 female        3800 Adelie  Torgersen           39.5          17.4
     3 female        3250 Adelie  Torgersen           40.3          18  
     4 <NA>            NA Adelie  Torgersen           NA            NA  
     5 female        3450 Adelie  Torgersen           36.7          19.3
     6 male          3650 Adelie  Torgersen           39.3          20.6
     7 female        3625 Adelie  Torgersen           38.9          17.8
     8 male          4675 Adelie  Torgersen           39.2          19.6
     9 <NA>          3475 Adelie  Torgersen           34.1          18.1
    10 <NA>          4250 Adelie  Torgersen           42            20.2
    # ℹ 334 more rows
    # ℹ 2 more variables: flipper_length_mm <int>, year <int>

``` r
# arrange
penguins |> 
  select(sex, body_mass_g) |> 
  arrange(body_mass_g)
```

    # A tibble: 344 × 2
       sex    body_mass_g
       <fct>        <int>
     1 female        2700
     2 female        2850
     3 female        2850
     4 female        2900
     5 female        2900
     6 female        2900
     7 female        2900
     8 female        2925
     9 <NA>          2975
    10 female        3000
    # ℹ 334 more rows

``` r
penguins |> 
  select(sex, body_mass_g) |> 
  arrange(desc(body_mass_g))
```

    # A tibble: 344 × 2
       sex   body_mass_g
       <fct>       <int>
     1 male         6300
     2 male         6050
     3 male         6000
     4 male         6000
     5 male         5950
     6 male         5950
     7 male         5850
     8 male         5850
     9 male         5850
    10 male         5800
    # ℹ 334 more rows
…
2.  Crea un objeto a partir del anterior donde selecciones la isla y las
    variables relacionadas con el pico.

3.  Crea un objeto a partir del creado en el punto 1 donde selecciones
    todo menos la especie.

``` r
# mutate
penguins |> 
  mutate(bill_volume_mm2 = (bill_length_mm * bill_depth_mm) / 2) |> 
  select(bill_volume_mm2, everything())
```

    # A tibble: 344 × 9
       bill_volume_mm2 species island bill_length_mm bill_depth_mm flipper_length_mm
                 <dbl> <fct>   <fct>           <dbl>         <dbl>             <int>
     1            366. Adelie  Torge…           39.1          18.7               181
     2            344. Adelie  Torge…           39.5          17.4               186
     3            363. Adelie  Torge…           40.3          18                 195
     4             NA  Adelie  Torge…           NA            NA                  NA
     5            354. Adelie  Torge…           36.7          19.3               193
     6            405. Adelie  Torge…           39.3          20.6               190
     7            346. Adelie  Torge…           38.9          17.8               181
     8            384. Adelie  Torge…           39.2          19.6               195
     9            309. Adelie  Torge…           34.1          18.1               193
    10            424. Adelie  Torge…           42            20.2               190
    # ℹ 334 more rows
    # ℹ 3 more variables: body_mass_g <int>, sex <fct>, year <int>

``` r
penguins |>
  mutate(female_penguin = case_when(
    sex == "female" & body_mass_g < 3600 ~ "small female",
    sex == "female" & body_mass_g >= 3600 ~ "big female",
    TRUE ~ NA)) |>
  select(female_penguin, sex, body_mass_g)
```

    # A tibble: 344 × 3
       female_penguin sex    body_mass_g
       <chr>          <fct>        <int>
     1 <NA>           male          3750
     2 big female     female        3800
     3 small female   female        3250
     4 <NA>           <NA>            NA
     5 small female   female        3450
     6 <NA>           male          3650
     7 big female     female        3625
     8 <NA>           male          4675
     9 <NA>           <NA>          3475
    10 <NA>           <NA>          4250
    # ℹ 334 more rows
…
``` r
# join: left, right, full, inner

coordinates <- tibble(island = c("Dream", "Torgersen", "Biscoe"), 
  latitude = c("64°44′S", "64°46′S", "64°36′S"),
  longitude = c("64°14′W", "64°05′W", " 63°30′W"))

penguins |> 
  left_join(coordinates, by = "island") |> 
  select(island, latitude, longitude, everything())
```

    # A tibble: 344 × 10
       island    latitude longitude species bill_length_mm bill_depth_mm
       <chr>     <chr>    <chr>     <fct>            <dbl>         <dbl>
     1 Torgersen 64°46′S  64°05′W   Adelie            39.1          18.7
     2 Torgersen 64°46′S  64°05′W   Adelie            39.5          17.4
     3 Torgersen 64°46′S  64°05′W   Adelie            40.3          18  
     4 Torgersen 64°46′S  64°05′W   Adelie            NA            NA  
     5 Torgersen 64°46′S  64°05′W   Adelie            36.7          19.3
     6 Torgersen 64°46′S  64°05′W   Adelie            39.3          20.6
     7 Torgersen 64°46′S  64°05′W   Adelie            38.9          17.8
     8 Torgersen 64°46′S  64°05′W   Adelie            39.2          19.6
     9 Torgersen 64°46′S  64°05′W   Adelie            34.1          18.1
    10 Torgersen 64°46′S  64°05′W   Adelie            42            20.2
    # ℹ 334 more rows
    # ℹ 4 more variables: flipper_length_mm <int>, body_mass_g <int>, sex <fct>,
    #   year <int>
…
``` r
penguins |> 
  filter(island == "Dream", species == "Chinstrap") |> 
  select(flipper_length_mm)
```

    # A tibble: 68 × 1
       flipper_length_mm
                   <int>
     1               192
     2               196
     3               193
     4               188
     5               197
     6               198
     7               178
     8               197
     9               195
    10               198
    # ℹ 58 more rows

``` r
penguins[penguins$island == "Dream" & penguins$species == "Chinstrap", "flipper_length_mm"]
```

    # A tibble: 68 × 1
       flipper_length_mm
                   <int>
     1               192
     2               196
     3               193
     4               188
     5               197
     6               198
     7               178
     8               197
     9               195
    10               198
    # ℹ 58 more rows
…
# unnest()
penguins_nested |> 
  unnest(pred) |> 
  select(!c(data, lm_obj))
```

    # A tibble: 344 × 2
    # Groups:   species [3]
       species  pred
       <fct>   <dbl>
     1 Adelie   38.9
     2 Adelie   39.1
     3 Adelie   37.4
     4 Adelie   NA  
     5 Adelie   38.0
     6 Adelie   38.6
     7 Adelie   38.6
     8 Adelie   41.9
     9 Adelie   38.1
    10 Adelie   40.5
    # ℹ 334 more rows
…
``` r
# resultado devuelto de forma invisible 
walk2(penguins_nested_str$data, penguins_nested_str$path, write_csv)

# resultado devuelto de forma visible utilizando parentesis 
(walk2(penguins_nested_str$data, penguins_nested_str$path, write_csv))
```

    [[1]]
    # A tibble: 152 × 7
       island bill_length_mm bill_depth_mm flipper_length_mm body_mass_g sex    year
       <fct>           <dbl>         <dbl>             <int>       <int> <fct> <int>
     1 Torge…           39.1          18.7               181        3750 male   2007
     2 Torge…           39.5          17.4               186        3800 fema…  2007
     3 Torge…           40.3          18                 195        3250 fema…  2007
     4 Torge…           NA            NA                  NA          NA <NA>   2007
     5 Torge…           36.7          19.3               193        3450 fema…  2007
     6 Torge…           39.3          20.6               190        3650 male   2007
     7 Torge…           38.9          17.8               181        3625 fema…  2007
     8 Torge…           39.2          19.6               195        4675 male   2007
     9 Torge…           34.1          18.1               193        3475 <NA>   2007
    10 Torge…           42            20.2               190        4250 <NA>   2007
    # ℹ 142 more rows

    [[2]]
    # A tibble: 124 × 7
       island bill_length_mm bill_depth_mm flipper_length_mm body_mass_g sex    year
       <fct>           <dbl>         <dbl>             <int>       <int> <fct> <int>
     1 Biscoe           46.1          13.2               211        4500 fema…  2007
     2 Biscoe           50            16.3               230        5700 male   2007
     3 Biscoe           48.7          14.1               210        4450 fema…  2007
     4 Biscoe           50            15.2               218        5700 male   2007
     5 Biscoe           47.6          14.5               215        5400 male   2007
     6 Biscoe           46.5          13.5               210        4550 fema…  2007
     7 Biscoe           45.4          14.6               211        4800 fema…  2007
     8 Biscoe           46.7          15.3               219        5200 male   2007
     9 Biscoe           43.3          13.4               209        4400 fema…  2007
    10 Biscoe           46.8          15.4               215        5150 male   2007
    # ℹ 114 more rows

    [[3]]
    # A tibble: 68 × 7
       island bill_length_mm bill_depth_mm flipper_length_mm body_mass_g sex    year
       <fct>           <dbl>         <dbl>             <int>       <int> <fct> <int>
     1 Dream            46.5          17.9               192        3500 fema…  2007
     2 Dream            50            19.5               196        3900 male   2007
     3 Dream            51.3          19.2               193        3650 male   2007
     4 Dream            45.4          18.7               188        3525 fema…  2007
     5 Dream            52.7          19.8               197        3725 male   2007
     6 Dream            45.2          17.8               198        3950 fema…  2007
     7 Dream            46.1          18.2               178        3250 fema…  2007
     8 Dream            51.3          18.2               197        3750 male   2007
     9 Dream            46            18.9               195        4150 fema…  2007
    10 Dream            51.3          19.9               198        3700 male   2007
    # ℹ 58 more rows
…
### Funcionales predicate y demás

Los predicados son funciones que devuelven un solo TRUE o FALSE (p. ej.,
`is.character()`). Así, un predicado funcional aplica un predicado a
cada elemento de un vector: `keep()`, `discard()`, `some()`, `every()`,
`detect()`, `detect_index()`… Para más información ver:
<https://r4ds.had.co.nz/iteration.html>, 21.9.1 Predicate functions.

``` r
penguins |> 
  keep(is.numeric)
```

    # A tibble: 344 × 5
       bill_length_mm bill_depth_mm flipper_length_mm body_mass_g  year
                <dbl>         <dbl>             <int>       <int> <int>
     1           39.1          18.7               181        3750  2007
     2           39.5          17.4               186        3800  2007
     3           40.3          18                 195        3250  2007
     4           NA            NA                  NA          NA  2007
     5           36.7          19.3               193        3450  2007
     6           39.3          20.6               190        3650  2007
     7           38.9          17.8               181        3625  2007
     8           39.2          19.6               195        4675  2007
     9           34.1          18.1               193        3475  2007
    10           42            20.2               190        4250  2007
    # ℹ 334 more rows

``` r
penguins |> 
  discard(is.numeric)
```

    # A tibble: 344 × 3
       species island    sex   
       <fct>   <fct>     <fct> 
     1 Adelie  Torgersen male  
     2 Adelie  Torgersen female
     3 Adelie  Torgersen female
     4 Adelie  Torgersen <NA>  
     5 Adelie  Torgersen female
     6 Adelie  Torgersen male  
     7 Adelie  Torgersen female
     8 Adelie  Torgersen male  
     9 Adelie  Torgersen <NA>  
    10 Adelie  Torgersen <NA>  
    # ℹ 334 more rows
…
