Programación funcional en R
…
sum(1:3) # función y argumentos

[1] 6

?sum

starting httpd help server ... done

# install.packages("palmerpenguins")
library(palmerpenguins) # la funcion library carga paquetes

palmerpenguins::penguins # :: permite explorar que hay dentro de los paquetes

# A tibble: 344 × 8
   species island    bill_length_mm bill_depth_mm flipper_length_mm body_mass_g
   <fct>   <fct>              <dbl>         <dbl>             <int>       <int>
 1 Adelie  Torgersen           39.1          18.7               181        3750
 2 Adelie  Torgersen           39.5          17.4               186        3800
 3 Adelie  Torgersen           40.3          18                 195        3250
 4 Adelie  Torgersen           NA            NA                  NA          NA
 5 Adelie  Torgersen           36.7          19.3               193        3450
 6 Adelie  Torgersen           39.3          20.6               190        3650
 7 Adelie  Torgersen           38.9          17.8               181        3625
 8 Adelie  Torgersen           39.2          19.6               195        4675
 9 Adelie  Torgersen           34.1          18.1               193        3475
10 Adelie  Torgersen           42            20.2               190        4250
# ℹ 334 more rows
# ℹ 2 more variables: sex <fct>, year <int>
…
[1] 5

mivector |> mean() # CTRL+SHIFT+M

[1] 5

# install.packages("tidyverse")
library(tidyverse)

penguins <- palmerpenguins::penguins
penguins

# A tibble: 344 × 8
   species island    bill_length_mm bill_depth_mm flipper_length_mm body_mass_g
   <fct>   <fct>              <dbl>         <dbl>             <int>       <int>
 1 Adelie  Torgersen           39.1          18.7               181        3750
 2 Adelie  Torgersen           39.5          17.4               186        3800
 3 Adelie  Torgersen           40.3          18                 195        3250
 4 Adelie  Torgersen           NA            NA                  NA          NA
 5 Adelie  Torgersen           36.7          19.3               193        3450
 6 Adelie  Torgersen           39.3          20.6               190        3650
 7 Adelie  Torgersen           38.9          17.8               181        3625
 8 Adelie  Torgersen           39.2          19.6               195        4675
 9 Adelie  Torgersen           34.1          18.1               193        3475
10 Adelie  Torgersen           42            20.2               190        4250
# ℹ 334 more rows
# ℹ 2 more variables: sex <fct>, year <int>
…
View(penguins)

# filter
penguins |> 
  filter(island == "Dream") 

# A tibble: 124 × 8
   species island bill_length_mm bill_depth_mm flipper_length_mm body_mass_g
   <fct>   <fct>           <dbl>         <dbl>             <int>       <int>
 1 Adelie  Dream            39.5          16.7               178        3250
 2 Adelie  Dream            37.2          18.1               178        3900
 3 Adelie  Dream            39.5          17.8               188        3300
 4 Adelie  Dream            40.9          18.9               184        3900
 5 Adelie  Dream            36.4          17                 195        3325
 6 Adelie  Dream            39.2          21.1               196        4150
 7 Adelie  Dream            38.8          20                 190        3950
 8 Adelie  Dream            42.2          18.5               180        3550
 9 Adelie  Dream            37.6          19.3               181        3300
10 Adelie  Dream            39.8          19.1               184        4650
# ℹ 114 more rows
# ℹ 2 more variables: sex <fct>, year <int>
…
# A tibble: 4 × 8
  species   island bill_length_mm bill_depth_mm flipper_length_mm body_mass_g
  <fct>     <fct>           <dbl>         <dbl>             <int>       <int>
1 Adelie    Dream            39.8          19.1               184        4650
2 Adelie    Dream            39.6          18.8               190        4600
3 Chinstrap Dream            52.8          20                 205        4550
4 Chinstrap Dream            52            20.7               210        4800
# ℹ 2 more variables: sex <fct>, year <int>

penguins |> 
  filter(island == "Dream" | body_mass_g > 4500) 

# A tibble: 235 × 8
   species island    bill_length_mm bill_depth_mm flipper_length_mm body_mass_g
   <fct>   <fct>              <dbl>         <dbl>             <int>       <int>
 1 Adelie  Torgersen           39.2          19.6               195        4675
 2 Adelie  Dream               39.5          16.7               178        3250
 3 Adelie  Dream               37.2          18.1               178        3900
 4 Adelie  Dream               39.5          17.8               188        3300
 5 Adelie  Dream               40.9          18.9               184        3900
 6 Adelie  Dream               36.4          17                 195        3325
 7 Adelie  Dream               39.2          21.1               196        4150
 8 Adelie  Dream               38.8          20                 190        3950
 9 Adelie  Dream               42.2          18.5               180        3550
10 Adelie  Dream               37.6          19.3               181        3300
# ℹ 225 more rows
# ℹ 2 more variables: sex <fct>, year <int>

penguins |> 
  filter(island %in% c("Dream", "Torgersen"))

# A tibble: 176 × 8
   species island    bill_length_mm bill_depth_mm flipper_length_mm body_mass_g
   <fct>   <fct>              <dbl>         <dbl>             <int>       <int>
 1 Adelie  Torgersen           39.1          18.7               181        3750
 2 Adelie  Torgersen           39.5          17.4               186        3800
 3 Adelie  Torgersen           40.3          18                 195        3250
 4 Adelie  Torgersen           NA            NA                  NA          NA
 5 Adelie  Torgersen           36.7          19.3               193        3450
 6 Adelie  Torgersen           39.3          20.6               190        3650
 7 Adelie  Torgersen           38.9          17.8               181        3625
 8 Adelie  Torgersen           39.2          19.6               195        4675
 9 Adelie  Torgersen           34.1          18.1               193        3475
10 Adelie  Torgersen           42            20.2               190        4250
# ℹ 166 more rows
# ℹ 2 more variables: sex <fct>, year <int>

# select
penguins |> 
  select(sex, body_mass_g)

# A tibble: 344 × 2
   sex    body_mass_g
   <fct>        <int>
 1 male          3750
 2 female        3800
 3 female        3250
 4 <NA>            NA
 5 female        3450
 6 male          3650
 7 female        3625
 8 male          4675
 9 <NA>          3475
10 <NA>          4250
# ℹ 334 more rows

penguins |> 
  select(-species)

# A tibble: 344 × 7
   island bill_length_mm bill_depth_mm flipper_length_mm body_mass_g sex    year
   <fct>           <dbl>         <dbl>             <int>       <int> <fct> <int>
 1 Torge…           39.1          18.7               181        3750 male   2007
 2 Torge…           39.5          17.4               186        3800 fema…  2007
 3 Torge…           40.3          18                 195        3250 fema…  2007
 4 Torge…           NA            NA                  NA          NA <NA>   2007
 5 Torge…           36.7          19.3               193        3450 fema…  2007
 6 Torge…           39.3          20.6               190        3650 male   2007
 7 Torge…           38.9          17.8               181        3625 fema…  2007
 8 Torge…           39.2          19.6               195        4675 male   2007
 9 Torge…           34.1          18.1               193        3475 <NA>   2007
10 Torge…           42            20.2               190        4250 <NA>   2007
# ℹ 334 more rows

penguins |> 
  select(ends_with("mm")) # seleccionar variables que tienen un patrón

# A tibble: 344 × 3
   bill_length_mm bill_depth_mm flipper_length_mm
            <dbl>         <dbl>             <int>
 1           39.1          18.7               181
 2           39.5          17.4               186
 3           40.3          18                 195
 4           NA            NA                  NA
 5           36.7          19.3               193
 6           39.3          20.6               190
 7           38.9          17.8               181
 8           39.2          19.6               195
 9           34.1          18.1               193
10           42            20.2               190
# ℹ 334 more rows

penguins |> 
  select(ends_with(c("mm", "g"))) 

# A tibble: 344 × 4
   bill_length_mm bill_depth_mm flipper_length_mm body_mass_g
            <dbl>         <dbl>             <int>       <int>
 1           39.1          18.7               181        3750
 2           39.5          17.4               186        3800
 3           40.3          18                 195        3250
 4           NA            NA                  NA          NA
 5           36.7          19.3               193        3450
 6           39.3          20.6               190        3650
 7           38.9          17.8               181        3625
 8           39.2          19.6               195        4675
 9           34.1          18.1               193        3475
10           42            20.2               190        4250
# ℹ 334 more rows

# se pueden utilizar todo tipo de patrones de texto: https://rstudio.github.io/cheatsheets/strings.pdf

penguins |> 
  select(sex, body_mass_g, everything()) # se puede usar para reordenar variables

# A tibble: 344 × 8
   sex    body_mass_g species island    bill_length_mm bill_depth_mm
   <fct>        <int> <fct>   <fct>              <dbl>         <dbl>
 1 male          3750 Adelie  Torgersen           39.1          18.7
 2 female        3800 Adelie  Torgersen           39.5          17.4
 3 female        3250 Adelie  Torgersen           40.3          18  
 4 <NA>            NA Adelie  Torgersen           NA            NA  
 5 female        3450 Adelie  Torgersen           36.7          19.3
 6 male          3650 Adelie  Torgersen           39.3          20.6
 7 female        3625 Adelie  Torgersen           38.9          17.8
 8 male          4675 Adelie  Torgersen           39.2          19.6
 9 <NA>          3475 Adelie  Torgersen           34.1          18.1
10 <NA>          4250 Adelie  Torgersen           42            20.2
# ℹ 334 more rows
# ℹ 2 more variables: flipper_length_mm <int>, year <int>

# arrange
penguins |> 
  select(sex, body_mass_g) |> 
  arrange(body_mass_g)

# A tibble: 344 × 2
   sex    body_mass_g
   <fct>        <int>
 1 female        2700
 2 female        2850
 3 female        2850
 4 female        2900
 5 female        2900
 6 female        2900
 7 female        2900
 8 female        2925
 9 <NA>          2975
10 female        3000
# ℹ 334 more rows

penguins |> 
  select(sex, body_mass_g) |> 
  arrange(desc(body_mass_g))

# A tibble: 344 × 2
   sex   body_mass_g
   <fct>       <int>
 1 male         6300
 2 male         6050
 3 male         6000
 4 male         6000
 5 male         5950
 6 male         5950
 7 male         5850
 8 male         5850
 9 male         5850
10 male         5800
# ℹ 334 more rows

2.2.1 Ejercicio

Crea un objeto con los pingüinos de la especie Adelie y ordena la tabla según la longitud del ala de los individuos.

Crea un objeto a partir del anterior donde selecciones la isla y las variables relacionadas con el pico.

# mutate
penguins |> 
  mutate(bill_volume_mm2 = (bill_length_mm * bill_depth_mm)/2) |> 
  select(bill_volume_mm2, everything())

# A tibble: 344 × 9
   bill_volume_mm2 species island bill_length_mm bill_depth_mm flipper_length_mm
             <dbl> <fct>   <fct>           <dbl>         <dbl>             <int>
 1            366. Adelie  Torge…           39.1          18.7               181
 2            344. Adelie  Torge…           39.5          17.4               186
 3            363. Adelie  Torge…           40.3          18                 195
 4             NA  Adelie  Torge…           NA            NA                  NA
 5            354. Adelie  Torge…           36.7          19.3               193
 6            405. Adelie  Torge…           39.3          20.6               190
 7            346. Adelie  Torge…           38.9          17.8               181
 8            384. Adelie  Torge…           39.2          19.6               195
 9            309. Adelie  Torge…           34.1          18.1               193
10            424. Adelie  Torge…           42            20.2               190
# ℹ 334 more rows
# ℹ 3 more variables: body_mass_g <int>, sex <fct>, year <int>

penguins |>
  mutate(female_penguin = case_when(
    sex == "female" & body_mass_g < 3600 ~ "small female",
    sex == "female" & body_mass_g >= 3600 ~ "big female",
    TRUE ~ NA)) |>
  select(female_penguin, sex, body_mass_g)

# A tibble: 344 × 3
   female_penguin sex    body_mass_g
   <chr>          <fct>        <int>
 1 <NA>           male          3750
 2 big female     female        3800
 3 small female   female        3250
 4 <NA>           <NA>            NA
 5 small female   female        3450
 6 <NA>           male          3650
 7 big female     female        3625
 8 <NA>           male          4675
 9 <NA>           <NA>          3475
10 <NA>           <NA>          4250
# ℹ 334 more rows
…
Error in eval(expr, envir, enclos): object 'valores' not found

mean(x = misvalores$valores)

[1] 5.5

misvalores |> summarise(mean = mean(valores))

  mean
1  5.5

penguins[penguins$island == "Dream" & penguins$species == "Chinstrap", "flipper_length_mm"]

# A tibble: 68 × 1
   flipper_length_mm
               <int>
 1               192
 2               196
 3               193
 4               188
 5               197
 6               198
 7               178
 8               197
 9               195
10               198
# ℹ 58 more rows

penguins |> filter(island == "Dream", species == "Chinstrap") |> select(flipper_length_mm)

# A tibble: 68 × 1
   flipper_length_mm
               <int>
 1               192
 2               196
 3               193
 4               188
 5               197
 6               198
 7               178
 8               197
 9               195
10               198
# ℹ 58 more rows
…
nxcaso <- lapply(penguins, function(x) length(unique(x)))

models <- penguins|>
  group_split(species) |>
  map(\(df) lm(body_mass_g ~ bill_length_mm, data = df)) 

📝 Mejor reservar el uso de funciones anónimas para funciones cortas y simples. Si la función es larga y ocupa varias líneas mejor darle un nombre.

5 Cómo escribir funciones

Imaginad que para un set de datos quisieramos hacer un gráfico de distribución de cada variable, en función de otra variable categórica que nos interese especialmente, para ver como se distribuye.

penguins

# A tibble: 344 × 8
   species island    bill_length_mm bill_depth_mm flipper_length_mm body_mass_g
   <fct>   <fct>              <dbl>         <dbl>             <int>       <int>
 1 Adelie  Torgersen           39.1          18.7               181        3750
 2 Adelie  Torgersen           39.5          17.4               186        3800
 3 Adelie  Torgersen           40.3          18                 195        3250
 4 Adelie  Torgersen           NA            NA                  NA          NA
 5 Adelie  Torgersen           36.7          19.3               193        3450
 6 Adelie  Torgersen           39.3          20.6               190        3650
 7 Adelie  Torgersen           38.9          17.8               181        3625
 8 Adelie  Torgersen           39.2          19.6               195        4675
 9 Adelie  Torgersen           34.1          18.1               193        3475
10 Adelie  Torgersen           42            20.2               190        4250
# ℹ 334 more rows
# ℹ 2 more variables: sex <fct>, year <int>
…
# unnest()
penguins_nested |> 
  unnest(pred) |> 
  select(!c(data, lm_obj))

# A tibble: 333 × 2
# Groups:   species [3]
   species  pred
   <fct>   <dbl>
 1 Adelie   39.0
 2 Adelie   39.1
 3 Adelie   37.4
 4 Adelie   38.0
 5 Adelie   38.6
 6 Adelie   38.6
 7 Adelie   41.9
 8 Adelie   37.2
 9 Adelie   39.1
10 Adelie   41.0
# ℹ 323 more rows
…
$year
[1] "La columna year tiene 3 valores unicos contando los NA's"

En este curso no los vemos más al detalle porque con los demás funcionales que hemos visto podemos abordar prácticamente todos los problemas sin necesidad de modify() e imap(), y creemos que es mejor primero aprender los funcionales más utilizados bien. Sin embargo, si alguien está interesado puede consultarlos en: https://adv-r.hadley.nz/functionals.html, 9.4 Map variants.

💡Ejemplos de algunas tareas específicas con {purrr}: https://r4ds.hadley.nz/iteration

12 Funcionales predicate y demás

Los predicados son funciones que devuelven un solo TRUE o FALSE (e.g., is.character()). Así, un predicado funcional aplica un predicado a cada elemento de un vector: keep(), discard(), some(), every(), detect(), detect_index()… Para más información ver: https://r4ds.had.co.nz/iteration.html, 21.9.1 Predicate functions.

penguins |> 
  keep(is.numeric)

# A tibble: 333 × 5
   bill_length_mm bill_depth_mm flipper_length_mm body_mass_g  year
            <dbl>         <dbl>             <int>       <int> <int>
 1           39.1          18.7               181        3750  2007
 2           39.5          17.4               186        3800  2007
 3           40.3          18                 195        3250  2007
 4           36.7          19.3               193        3450  2007
 5           39.3          20.6               190        3650  2007
 6           38.9          17.8               181        3625  2007
 7           39.2          19.6               195        4675  2007
 8           41.1          17.6               182        3200  2007
 9           38.6          21.2               191        3800  2007
10           34.6          21.1               198        4400  2007
# ℹ 323 more rows

penguins |> 
  discard(is.numeric)

# A tibble: 333 × 3
   species island    sex   
   <fct>   <fct>     <fct> 
 1 Adelie  Torgersen male  
 2 Adelie  Torgersen female
 3 Adelie  Torgersen female
 4 Adelie  Torgersen female
 5 Adelie  Torgersen male  
 6 Adelie  Torgersen female
 7 Adelie  Torgersen male  
 8 Adelie  Torgersen female
 9 Adelie  Torgersen male  
10 Adelie  Torgersen male  
# ℹ 323 more rows
…
